2014/12/28 05:59:02.951-0500,mohawk.MohawkMain,setupUserPreferenceOptions,FINE,[OPTION] Setting the console's maximum width
2014/12/28 05:59:02.967-0500,mohawk.MohawkMain,setupUserPreferenceOptions,FINE,[OPTION] Default Line String Used
2014/12/28 05:59:02.967-0500,mohawk.MohawkMain,setupSmvSpecOptions,FINE,[OPTION] Using a specific SMV File: pos.test1.spec.smv
2014/12/28 05:59:02.967-0500,mohawk.MohawkMain,setupSmvSpecOptions,FINE,[OPTION] Using a specific SPEC File: ./data/testcases/positive/test1.spec
2014/12/28 05:59:02.968-0500,mohawk.MohawkMain,setupSmvSpecOptions,FINE,[OPTION] Using the default SPEC File Extension: .spec
2014/12/28 05:59:02.968-0500,mohawk.MohawkMain,setupSmvSpecOptions,FINE,[OPTION] Bulk SPEC File inclusion: Disabled
2014/12/28 05:59:02.968-0500,mohawk.MohawkMain,setupSmvSpecOptions,FINE,[OPTION] Bulk SPEC File inclusion: Disabled
2014/12/28 05:59:02.968-0500,mohawk.MohawkMain,setupResultOptions,INFO,Results File: latestMohawkResults.csv
2014/12/28 05:59:02.968-0500,mohawk.MohawkMain,main,INFO,[ACTION] Run paramter detected
2014/12/28 05:59:02.971-0500,mohawk.MohawkMain,main,INFO,[ACTION] Will convert and then execute the testcase provided
2014/12/28 05:59:02.971-0500,mohawk.testing.TestingSuite,runTests(),FINER,ENTRY
2014/12/28 05:59:02.972-0500,mohawk.helper.SMVSpecHelper,addSpecFile,INFO,[FILE IO] Using SPEC File: D:\Work\Masters\workspace\Mohawk 2.0\data\testcases\positive\test1.spec
2014/12/28 05:59:03.260-0500,mohawk.testing.TestingSuite,runTests,INFO,"[COMPLETED] Result: GOAL_REACHABLE, for the following spec file (in mode SMC): D:\Work\Masters\workspace\Mohawk 2.0\.\data\testcases\positive\test1.spec"
2014/12/28 05:59:03.325-0500,mohawk.testing.TestingSuite,runTests,INFO,"[COMPLETED] Result: GOAL_REACHABLE, for the following spec file (in mode BMC): D:\Work\Masters\workspace\Mohawk 2.0\.\data\testcases\positive\test1.spec"
2014/12/28 05:59:03.325-0500,mohawk.testing.TestingSuite,runTests(),FINER,RETURN
2014/12/28 05:59:03.327-0500,mohawk.MohawkMain,main,INFO,[TIMING] runTests.mainLoop: 353ms - runTests.mainLoop (0): 352ms - smvHelper.loadSpecFiles: 1ms - totalTime: 355ms - runTests.mainLoop (0) - test1.spec (BMC): 65ms - runTests.mainLoop (0) - test1.spec (SMC): 287ms
