2014/12/28 05:40:15.115-0500,mohawk.MohawkMain,setupUserPreferenceOptions,FINE,[OPTION] Setting the console's maximum width
2014/12/28 05:40:15.134-0500,mohawk.MohawkMain,setupUserPreferenceOptions,FINE,[OPTION] Default Line String Used
2014/12/28 05:40:15.134-0500,mohawk.MohawkMain,setupSmvSpecOptions,FINE,[OPTION] Using a specific SMV File: pos.test1.spec.smv
2014/12/28 05:40:15.135-0500,mohawk.MohawkMain,setupSmvSpecOptions,FINE,[OPTION] Using a specific SPEC File: ./data/testcases/positive/test1.spec
2014/12/28 05:40:15.135-0500,mohawk.MohawkMain,setupSmvSpecOptions,FINE,[OPTION] Using the default SPEC File Extension: .spec
2014/12/28 05:40:15.135-0500,mohawk.MohawkMain,setupSmvSpecOptions,FINE,[OPTION] Bulk SPEC File inclusion: Disabled
2014/12/28 05:40:15.135-0500,mohawk.MohawkMain,setupSmvSpecOptions,FINE,[OPTION] Bulk SPEC File inclusion: Disabled
2014/12/28 05:40:15.135-0500,mohawk.MohawkMain,setupResultOptions,INFO,Results File: latestMohawkResults.csv
2014/12/28 05:40:15.135-0500,mohawk.MohawkMain,main,INFO,[ACTION] Run paramter detected
2014/12/28 05:40:15.138-0500,mohawk.MohawkMain,main,INFO,[ACTION] Will convert and then execute the testcase provided
2014/12/28 05:40:15.138-0500,mohawk.testing.TestingSuite,runTests(),FINER,ENTRY
2014/12/28 05:40:15.139-0500,mohawk.helper.SMVSpecHelper,addSpecFile,INFO,[FILE IO] Using SPEC File: D:\Work\Masters\workspace\Mohawk 2.0\data\testcases\positive\test1.spec
2014/12/28 05:40:15.424-0500,mohawk.testing.TestingSuite,runTests,INFO,[COMPLETED] The following spec file is completed testing for mode SMC: D:\Work\Masters\workspace\Mohawk 2.0\.\data\testcases\positive\test1.spec
2014/12/28 05:40:15.489-0500,mohawk.testing.TestingSuite,runTests,INFO,[COMPLETED] The following spec file is completed testing for mode BMC: D:\Work\Masters\workspace\Mohawk 2.0\.\data\testcases\positive\test1.spec
2014/12/28 05:40:15.490-0500,mohawk.testing.TestingSuite,runTests(),FINER,RETURN
2014/12/28 05:40:15.490-0500,mohawk.MohawkMain,main,INFO,[TIMING] smvHelper.loadSpecFiles: 1ms - totalTime: 352ms - D:\Work\Masters\workspace\Mohawk 2.0\.\data\testcases\positive\test1.spec: 66ms
