2014/12/28 05:36:10.775-0500,mohawk.MohawkMain,setupUserPreferenceOptions,FINE,[OPTION] Setting the console's maximum width
2014/12/28 05:36:10.790-0500,mohawk.MohawkMain,setupUserPreferenceOptions,FINE,[OPTION] Default Line String Used
2014/12/28 05:36:10.790-0500,mohawk.MohawkMain,setupSmvSpecOptions,FINE,[OPTION] Using a specific SMV File: test3.spec.smv
2014/12/28 05:36:10.790-0500,mohawk.MohawkMain,setupSmvSpecOptions,FINE,[OPTION] Using a specific SPEC File: ./data/testcases/mixed/test3.spec
2014/12/28 05:36:10.790-0500,mohawk.MohawkMain,setupSmvSpecOptions,FINE,[OPTION] Using the default SPEC File Extension: .spec
2014/12/28 05:36:10.790-0500,mohawk.MohawkMain,setupSmvSpecOptions,FINE,[OPTION] Bulk SPEC File inclusion: Disabled
2014/12/28 05:36:10.790-0500,mohawk.MohawkMain,setupSmvSpecOptions,FINE,[OPTION] Bulk SPEC File inclusion: Disabled
2014/12/28 05:36:10.791-0500,mohawk.MohawkMain,setupResultOptions,INFO,Results File: latestMohawkResults.csv
2014/12/28 05:36:10.793-0500,mohawk.testing.TestingSuite,runTests(),FINER,ENTRY
2014/12/28 05:36:10.794-0500,mohawk.helper.SMVSpecHelper,addSpecFile,INFO,[FILE IO] Using SPEC File: D:\Work\Masters\workspace\Mohawk 2.0\data\testcases\mixed\test3.spec
2014/12/28 05:36:10.970-0500,mohawk.testing.TestingSuite,runTests,INFO,[COMPLETED] The following spec file is completed testing for mode SMC: D:\Work\Masters\workspace\Mohawk 2.0\.\data\testcases\mixed\test3.spec
2014/12/28 05:36:11.036-0500,mohawk.testing.TestingSuite,runTests,INFO,[COMPLETED] The following spec file is completed testing for mode BMC: D:\Work\Masters\workspace\Mohawk 2.0\.\data\testcases\mixed\test3.spec
2014/12/28 05:36:11.036-0500,mohawk.testing.TestingSuite,runTests(),FINER,RETURN
2014/12/28 05:36:11.037-0500,mohawk.MohawkMain,main,INFO,[TIMING] D:\Work\Masters\workspace\Mohawk 2.0\.\data\testcases\mixed\test3.spec: 65ms - smvHelper.loadSpecFiles: 1ms - totalTime: 244ms
